…
Looking at the heavily populated majors we might be able to dig a little
deeper and looking at those soley? Here below we can see exactly how
many students are in each major. Biology being the largest number of
students, is primarily because most students who major in Biology want
to pursue their careers in the medical fields. Computer Information
Systems, Computer Science, dual Degree-Physics and Chemistry are listed
with the top five majors as well.

``` r
capdat %>% group_by(Major) %>% count() %>% arrange(desc(n))
```

    ## # A tibble: 22 x 2
    ## # Groups:   Major [22]
    ##    Major                            n
    ##    <fct>                        <int>
    ##  1 Biology                        167
    ##  2 Computer and Information Sys    40
    ##  3 Computer Science                38
    ##  4 Dual Deg Engineer - Physics     28
    ##  5 Chemistry                       25
    ##  6 Dual Deg Engineer- Comp Sci     10
    ##  7 Business Administration          9
    ##  8 Biology - Public Health          8
    ##  9 Dual Degree-Biology              8
    ## 10 Psychology - BS Degree           8
    ## # ... with 12 more rows
…
``` r
inst_maj <- capdat %>% group_by(Instructor, Major) %>% count() %>% arrange(desc(n))
inst_maj
```

    ## # A tibble: 77 x 3
    ## # Groups:   Instructor, Major [77]
    ##    Instructor        Major                            n
    ##    <chr>             <fct>                        <int>
    ##  1 Djire, Bakary     Biology                         35
    ##  2 Jalloh, Mohamed   Computer and Information Sys    34
    ##  3 Parker, Cassandra Biology                         34
    ##  4 Jalloh, Mohamed   Biology                         32
    ##  5 Harlemon, Maxine  Biology                         27
    ##  6 Jalloh, Mohamed   Computer Science                27
    ##  7 Kebede, Temesgen  Biology                         24
    ##  8 Jackson, Calvin   Biology                          8
    ##  9 Parker, Cassandra Chemistry                        8
    ## 10 Jalloh, Mohamed   Dual Deg Engineer - Physics      7
    ## # ... with 67 more rows
…
